{
    "data": [
        {
            "tmdb_id": 526474,
            "title": "Rocket Q",
            "overview": "The investigator's story in two interrogations with an unpredictable end.",
            "poster": "https://m.media-amazon.com/images/M/MV5BMTUwMTI0NDcxMF5BMl5BanBnXkFtZTgwNDAxNTI4MjE@._V1_QL75_UX190_CR0,2,190,281_.jpg",
            "backdrop_image": "https://image.tmdb.org/t/p/original/mRoAZuZraBypJ2xxhN982oQojTA.jpg",
            "release_date": "2014-04-04",
            "popularity": 0.623,
            "rating": 7.5,
            "rating_people_count": 2,
            "genre_ids": [
                18
            ]
        },
        {
            "tmdb_id": 252120,
            "title": "Farewell to the Moon",
            "overview": "It's the hot summer of 1972: the Americans launch their last mission to the moon; also a time of dungarees and hallucinogenic wallpaper. On the eighth floor of a new Dutch apartment block, 12-year-old Duch lives with his family. His hobbies are space travel and Mary, the pretty woman next door. Duch’s father prefers to watch the neighbour who recently moved in two doors down. Her arrival makes the residents aware of the free-sex morality. Up until now it had left the eighth floor untouched, but that is clearly not to everyone’s satisfaction.",
            "poster": "https://m.media-amazon.com/images/M/MV5BYWQ4ZmVjNzEtMTFkZS00OWMyLTgzNzUtOWM1Y2Q3NzQyNzk3XkEyXkFqcGc@._V1_FMjpg_UX1000_.jpg",
            "backdrop_image": "https://image.tmdb.org/t/p/original",
            "release_date": "2014-01-29",
            "popularity": 0.652,
            "rating": 7.7,
            "rating_people_count": 3,
            "genre_ids": [
                18
            ]
        },
        {
            "tmdb_id": 329116,
            "title": "Leidi",
            "overview": "Leidi lives with her mom and her baby. Her boyfriend, Alexis, hasn't shown up in days. That sunny morning, after she bathed her baby, Leidi was sent by her mother to buy plantains. She meets a guy that tells her he has seen Alexis with another girl. She forgets about bringing home the plantains and embarks on a journey to find him. Leidi won't return home until she finds the father of her child.",
            "poster": "https://image.tmdb.org/t/p/original",
            "backdrop_image": "https://image.tmdb.org/t/p/original",
            "release_date": "2014-05-23",
            "popularity": 0.666,
            "rating": 7.6,
            "rating_people_count": 5,
            "genre_ids": [
                18
            ]
        },
        {
            "tmdb_id": 296162,
            "title": "Shadow Days",
            "overview": "Escaping a dubious past, Liang Renwei and his pregnant girlfriend Pomegranate return to his home village. The couple plans to remain until the child is born, then see what opportunities arise. While he takes a job enforcing the One Child Policy quotas, she begins to see faceless ghosts of the past.",
            "poster": "https://image.tmdb.org/t/p/original/wqRNFFGXqxWO79EQkkg5iN0nUcJ.jpg",
            "backdrop_image": "https://image.tmdb.org/t/p/original",
            "release_date": "2014-02-07",
            "popularity": 0.294,
            "rating": 7.1,
            "rating_people_count": 5,
            "genre_ids": [
                18
            ]
        },
        {
            "tmdb_id": 293116,
            "title": "A Few Cubic Meters of Love",
            "overview": "A romance blooms between a young Iranian working in a Teheran factory and the daughter of an Afghan worker.",
            "poster": "https://image.tmdb.org/t/p/original/wkoh9Wq6CZ6RGos3NRrEF1vG1l5.jpg",
            "backdrop_image": "https://image.tmdb.org/t/p/original/o7HyEaaJ5SCM2JXi86xHmX0yZeD.jpg",
            "release_date": "2014-02-04",
            "popularity": 0.729,
            "rating": 7.5,
            "rating_people_count": 6,
            "genre_ids": [
                10749,
                18
            ]
        },
        {
            "tmdb_id": 308648,
            "title": "A Long Walk", 
	   "overview": "A father humiliates his son by parading him through the neighborhood in women's clothing in front of all the other kids on a summer day. The impact of that decision ripples through his family and best friend's lives for years to come. This story is based on true events.",
            "poster": "https://image.tmdb.org/t/p/original/mOKOAscYLNS09ImxWtX8Xzqu5XZ.jpg",
            "backdrop_image": "https://image.tmdb.org/t/p/original",
            "release_date": "2014-03-25",
            "popularity": 0.753,
            "rating": 7.5,
            "rating_people_count": 2,
            "genre_ids": [
                18
            ]
        },
        {
            "tmdb_id": 314131,
            "title": "The Awareness",
            "overview": "On the eve of a technological breakthrough, an insignificant janitor and a prominent engineer are faced with a decision that will alter the course of humanity: the release of the first aware computer system into the world.",
            "poster": "https://image.tmdb.org/t/p/original/hqJB0LX5lOO7l3WO1hsyNjvz1s2.jpg",
            "backdrop_image": "https://image.tmdb.org/t/p/original",
            "release_date": "2014-01-02",
            "popularity": 0.756,
            "rating": 7.5,
            "rating_people_count": 6,
            "genre_ids": [
                18,
                878
            ]
        },
        {
            "tmdb_id": 244065,
            "title": "Rhubarb",
            "overview": "Sometimes it takes a child or two to fix the adult problems! Siems mother and father are divorced , but his father Rik has found love again , and be married to Winnie's mother Tosca .  Siem loves Winnie , so when the relationship between Rik and Tosca begins to creak, devises the two children , a plan designed to get parents to get back together ; they make a movie with good advice about love . And what a movie ! The small movie clips bubbles of love and creativity , both in front of and behind the camera . We will diligently around the genres when Siem and Winnie must interpret many of love . A sweet , funny and sensitive film that is about to stick together and keep each other - and each other's differences , not least .",
            "poster": "https://image.tmdb.org/t/p/original/3AhIraWvt4uYNAKD67ZtpvaCXgy.jpg",
            "backdrop_image": "https://image.tmdb.org/t/p/original/fNN1YTDjwoThTxn2h4REpMWSfxX.jpg",
            "release_date": "2014-01-08",
            "popularity": 0.757,
            "rating": 7.8,
            "rating_people_count": 6,
            "genre_ids": [
                10751,
                18
            ]
        },
        {
            "tmdb_id": 877083,
            "title": "Hidden",
            "overview": "A young brother and sister struggle with fear and vulnerability while hiding underneath the floorboards of Holocaust hero Irena Sendler.",
            "poster": "https://image.tmdb.org/t/p/original/f8ONqFAv7J9MNbr7zIeurDp8FXV.jpg",
            "backdrop_image": "https://image.tmdb.org/t/p/original",
            "release_date": "2014-01-01",
            "popularity": 0.762,
            "rating": 7.5,
            "rating_people_count": 2,
            "genre_ids": [
                18,
                10751
            ]
        },
        {
            "tmdb_id": 282475,
            "title": "The Other Side of Paradise",
            "overview": "Nando, a 12 year old boy, narrates the adventures of his father Antonio, during the 60s in Brazil, who leaves the inland of the state of Minas to go to Brasília, a recently inaugurated city, but still with construction works in progress.",
            "poster": "https://image.tmdb.org/t/p/original/wLDfMzbXRTYI9GJ2q0MsCphCVfH.jpg",
            "backdrop_image": "https://image.tmdb.org/t/p/original/phHO2T2hpxOdzBOTMBdFSSDNsZS.jpg",
            "release_date": "2014-08-06",
            "popularity": 0.771,
            "rating": 7.6,
            "rating_people_count": 7,
            "genre_ids": [
                18,
                36
            ]
        },
        {
            "tmdb_id": 434790,
            "title": "The Equation",
            "overview": "Serge, a young math teacher at an inner city high school, tries to get his students to solve an equation but is disturbed by a phone call. Smart aleck Karima is no whiz at math but comes up with a solution.",
            "poster": "https://image.tmdb.org/t/p/original/pGLgBHAbX83vkMt3xMfWIBJGabY.jpg",
            "backdrop_image": "https://image.tmdb.org/t/p/original",
            "release_date": "2014-07-03",
            "popularity": 0.489,
            "rating": 7.6,
            "rating_people_count": 5,
            "genre_ids": [
                18
            ]
        },
        {
            "tmdb_id": 280427,
            "title": "Flowers for Algernon",
            "overview": "A man with a low IQ takes part in a scientific experiment with a mouse.",
            "poster": "https://image.tmdb.org/t/p/original/i5FtqTiBWvAfgILyXE2uvCDipzx.jpg",
            "backdrop_image": "https://image.tmdb.org/t/p/original",
            "release_date": "2014-07-03",
            "popularity": 0.802,
            "rating": 7.4,
            "rating_people_count": 7,
            "genre_ids": [
                18,
                10770,
                878
            ]
        },
        {
            "tmdb_id": 268534,
            "title": "Kya Dilli Kya Lahore",
            "overview": "In 1948, a cross-fire erupts at an isolated stretch of Indo-Pak border, leaving only two soldiers alive. One is an Indian soldier of Pakistani origin while the other happens to be a Pakistani soldier of Indian origin. An ironic story of pride and survival begins when - in an attempt to evade danger, they bump into each other. And amidst continuous exchange of bullets, altercations and murkier situations, it evolves into a journey of human connection with an unforeseeable end.",
            "poster": "https://image.tmdb.org/t/p/original/4q9fNNQj9lKhTfbeaXegXybYbxx.jpg",
            "backdrop_image": "https://image.tmdb.org/t/p/original/dJ8xrTmjRhCoPKJ5Z3qODsel6qh.jpg",
            "release_date": "2014-05-02",
            "popularity": 0.883,
            "rating": 7.5,
            "rating_people_count": 8,
            "genre_ids": [
                18,
                36,
                10752
            ]
        },
        {
            "tmdb_id": 329414,
            "title": "Au nom des fils",
            "overview": "Two mothers each try to come to terms with the pain of losing a child after four young scouts and a young man who tried to save them drown, with the inquiry revealing negligence on the part of the supervisors.",
            "poster": "https://image.tmdb.org/t/p/original/vvHfD2GyI7aeSpGA6eCRGxVz4Tl.jpg",
            "backdrop_image": "https://image.tmdb.org/t/p/original/nk84FulP1oyTwDboUqW8ixes11E.jpg",
            "release_date": "2014-09-13",
            "popularity": 0.381,
            "rating": 7.1,
            "rating_people_count": 4,
            "genre_ids": [
                18,
                10770
            ]
        },
        {
            "tmdb_id": 264415,
            "title": "A Separate Wind",
            "overview": "Omar (15) and Karina's (12) mother has a stroke during the family holidays. The siblings, drifting apart, will start a long journey through Mexico towards their grandmother's house. On the road they will face a broken and divided country. Where mistrust, resentment and violence are everywhere. Diverse characters -strangers on their own land- will lead them, in labyrinthic stages, until their final destiny.",
            "poster": "https://image.tmdb.org/t/p/original/M4bL4xPPAEDgRxmUPcibVCC8Hy.jpg",
            "backdrop_image": "https://image.tmdb.org/t/p/original",
            "release_date": "2014-03-21",
            "popularity": 0.913,
            "rating": 7.8,
            "rating_people_count": 6,
            "genre_ids": [
                18,
                28,
                12
            ]
        },
        {
            "tmdb_id": 292637,
            "title": "Dr. Blanche's Clinic",
            "overview": "In mid-19th century France, two doctors with very different methods compete in the brand-new field of psychiatry.",
            "poster": "https://image.tmdb.org/t/p/original/q12XcYfIUn58yWvKxvb7U5iGHFV.jpg",
            "backdrop_image": "https://image.tmdb.org/t/p/original",
            "release_date": "2014-01-25",
            "popularity": 0.915,
            "rating": 7.2,
            "rating_people_count": 2,
            "genre_ids": [
                18,
                10770
            ]
        },
        {
            "tmdb_id": 271495,
            "title": "Dialogues",
            "overview": "Five attempts to say the most important thing, through dumbness and fear of being misunderstood. Five steps to yourself, through the reflection in the closest people. Five breaths to go on, overcoming emptiness and fear of death, in search and finding love. Different heroes go this way with only one desire to be heard and accepted as they are. But is it possible?",
            "poster": "https://image.tmdb.org/t/p/original/lEYXsbLVgNkqYoUqKCf8a78oTvs.jpg",
            "backdrop_image": "https://image.tmdb.org/t/p/original",
            "release_date": "2014-04-24",
            "popularity": 0.96,
            "rating": 7.6,
            "rating_people_count": 5,
            "genre_ids": [
                18
            ]
        },
        {
            "tmdb_id": 323615,
            "title": "Pure Life",
            "overview": "1949, a French explorer goes on a solitary expedition in the Amazon forest. He leaves behind him a diary that reflects the meaning of Pure Life and his encounters but leaves the mystery of his own disappearance unsolved. Based on a true story.",
            "poster": "https://image.tmdb.org/t/p/original/gfP7gk24y4fumTBsx4iRonGa2fG.jpg",
            "backdrop_image": "https://image.tmdb.org/t/p/original/wTUgWUOmUbcTLRsIYvyhtxpJGBr.jpg",
            "release_date": "2014-08-28",
            "popularity": 0.97,
            "rating": 7.136,
            "rating_people_count": 11,
            "genre_ids": [
                12,
                99,
                18
            ]
        },
        {
            "tmdb_id": 318028,
            "title": "Calling",
            "overview": "Father and son on a journey in the forest. Their trip through nature is an act of initiation for them both. What looks innocent and safe turns out to be dangerous and vicious. A beautifully shot meditation on first encounters with the world as it is.",
            "poster": "https://image.tmdb.org/t/p/original/4hbgW41pL8wrm7LvlTfmAmCKmZI.jpg",
            "backdrop_image": "https://image.tmdb.org/t/p/original/2J8jNkh4OhL1GLoqnmPYHH9g3zl.jpg",
            "release_date": "2014-07-29",
            "popularity": 0.988,
            "rating": 7.6,
            "rating_people_count": 5,
            "genre_ids": [
                18
            ]
        },
        {
            "tmdb_id": 271115,
            "title": "Neuroworld",
            "overview": "Nothing is what it looks like. Everything is possible. Emotional parasyte dance in a mask play. Monika and Kristina are flatmates and maybe friends. One of the two is a famous YouTuber. One gun, two guns... Based on Miguel Ángel Martín's comics, this story won't leave you indifferent. It happens in a world which could be ours, where technology and social media changed the way we relate to each other.",
            "poster": "https://image.tmdb.org/t/p/original/h2UaDaxX4vp6E7RVdjapZeogXbE.jpg",
            "backdrop_image": "https://image.tmdb.org/t/p/original/qRbXRSJtAP7mMb4OfMwsqWeDdt4.jpg",
            "release_date": "2014-05-15",
            "popularity": 1.015,
            "rating": 7.9,
            "rating_people_count": 7,
            "genre_ids": [
                18,
                53
            ]
        }
    ],
    "page": 2,
    "total_pages": 11,
    "total_results": 214,
    "result": "success"
}
